%YAML 1.1
%TAG !u! tag:unity3d.com,2011:
--- !u!114 &11400000
MonoBehaviour:
  m_ObjectHideFlags: 0
  m_PrefabParentObject: {fileID: 0}
  m_PrefabInternal: {fileID: 0}
  m_GameObject: {fileID: 0}
  m_Enabled: 1
  m_EditorHideFlags: 0
  m_Script: {fileID: 11500000, guid: 9954acc3fea28ca49a5863928bc7ff21, type: 3}
  m_Name: Ocean (Fully featured)
  m_EditorClassIdentifier: 
  transparencyMode: 1
  reflectionProbeUsage: 2
  planarReflections: 2
  receiveShadows: 1
  windWavesMode: 0
  dynamicSmoothnessMode: 1
  localEffectsSupported: 1
  localEffectsDebug: 0
  foam: 1
  forwardRenderMode: 1
  deferredRenderMode: 1
  projectionGrid: 1
  customTriangularGeometry: 0
  displayOnlyInAdditiveVolumes: 0
  wavesAlign: 0
  normalMappingMode: 1
  supportEmission: 0
  surfaceShaders:
  - {fileID: 4800000, guid: 15d050ab9652e4741bf5f3f99e9af7b0, type: 3}
  volumeShaders:
  - {fileID: 4800000, guid: 6df43e729c344d241bf882979321a260, type: 3}
  utilityShaders:
  - {fileID: 4800000, guid: e9a7e79715e28a541a3610d926193364, type: 3}
  - {fileID: 4800000, guid: 64bdf8c460574fe4eadf1780693edfb8, type: 3}
  - {fileID: 4800000, guid: 3b204187f543deb49942ffa9918e3987, type: 3}
  - {fileID: 4800000, guid: d09daa6f13a385f4497c91e74d615ad9, type: 3}
  - {fileID: 4800000, guid: 38039a1b012f6fc4faa86e143e10352a, type: 3}
  - {fileID: 4800000, guid: 7207c986c9af312458df8d0aa15adb4b, type: 3}
  - {fileID: 4800000, guid: 3d6d84b7796fd084494e0b4f2f4f92d8, type: 3}
  - {fileID: 4800000, guid: 473083b5d068f8849a0e35255e9e806e, type: 3}
  computeShaders:
  - {fileID: 7200000, guid: 53b9e771c13f794409adf46b608c6df9, type: 3}
  - {fileID: 7200000, guid: 3e463f177fc3ed24bbe1108134f4c3ab, type: 3}
